%YAML 1.1
%TAG !u! tag:unity3d.com,2011:
--- !u!114 &11400000
MonoBehaviour:
  m_ObjectHideFlags: 0
  m_CorrespondingSourceObject: {fileID: 0}
  m_PrefabInstance: {fileID: 0}
  m_PrefabAsset: {fileID: 0}
  m_GameObject: {fileID: 0}
  m_Enabled: 1
  m_EditorHideFlags: 0
  m_Script: {fileID: 11500000, guid: eff79a50403d08543a7423de05cfbd9b, type: 3}
  m_Name: ColorPalette-3Color
  m_EditorClassIdentifier: 
  colors:
  - {r: 0.8784314, g: 0.47843137, b: 0.37254903, a: 1}
  - {r: 0.23921569, g: 0.2509804, b: 0.35686275, a: 1}
  - {r: 0.9490196, g: 0.8, b: 0.56078434, a: 1}
