%YAML 1.1
%TAG !u! tag:unity3d.com,2011:
--- !u!114 &11400000
MonoBehaviour:
  m_ObjectHideFlags: 0
  m_CorrespondingSourceObject: {fileID: 0}
  m_PrefabInstance: {fileID: 0}
  m_PrefabAsset: {fileID: 0}
  m_GameObject: {fileID: 0}
  m_Enabled: 1
  m_EditorHideFlags: 0
  m_Script: {fileID: 11500000, guid: eff79a50403d08543a7423de05cfbd9b, type: 3}
  m_Name: ColorPalette-10Color
  m_EditorClassIdentifier: 
  colors:
  - {r: 0.34509805, g: 0.3882353, b: 0.972549, a: 1}
  - {r: 0.7764706, g: 0.8862745, b: 0.9137255, a: 1}
  - {r: 0.99607843, g: 0.37254903, b: 0.33333334, a: 1}
  - {r: 0.3882353, g: 0.83137256, b: 0.44313726, a: 1}
  - {r: 0.8235294, g: 0.7490196, b: 0.33333334, a: 1}
  - {r: 0.011764706, g: 0.19215687, b: 0.1764706, a: 1}
  - {r: 0.34901962, g: 0.25490198, b: 0.3372549, a: 1}
  - {r: 0.08627451, g: 0.49411765, b: 0.53333336, a: 1}
  - {r: 0.5803922, g: 0.48235294, b: 0.827451, a: 1}
  - {r: 0.41568628, g: 0.52156866, b: 0.5411765, a: 1}
